{
  "errors": {
    "400": {
      "hits": 123,
      "paths": {}
    },
    "404": {
      "hits": 451,
      "paths": {}
    }
  },
  "firstProcessedDate": "2021-01-11T00:00:33+00:00",
  "hits": 3274,
  "hitsPerCountry": {
    "-": 255,
    "CA": 129,
    "DE": 161,
    "FR": 108,
    "GB": 375,
    "NL": 206,
    "US": 1478
  },
  "lastProcessedDate": "2021-01-17T23:57:33+00:00",
  "paths": {
    "/": {
      "hits": 346
    },
    "/android-free/repository/": {
      "hits": 2019,
      "hitsPerCountry": {
        "CA": 117,
        "DE": 136,
        "GB": 345,
        "NL": 171,
        "US": 892
      }
    },
    "/robots.txt": {
      "hits": 117
    }
  },
  "queries": {
    "": {
      "hits": 107
    }
  },
  "weekStartDate": "2021-01-11T00:00:00+00:00"
}